{"statusCode":200,"data":{"page":1,"limit":10,"totalPages":30,"previousPage":false,"nextPage":true,"totalItems":300,"currentPageItems":10,"data":[{"author":"Charles Dickens","content":"Subdue your appetites, my dears, and you've conquered human nature.","tags":[],"authorSlug":"charles-dickens","length":67,"dateAdded":"2023-04-14","dateModified":"2023-04-14","id":1},{"author":"Charles Dickens","content":"No one is useless in this world who lightens the burdens of another.","tags":["Generosity"],"authorSlug":"charles-dickens","length":68,"dateAdded":"2023-04-14","dateModified":"2023-04-14","id":2},{"author":"Thomas Edison","content":"Opportunity is missed by most people because it is dressed in overalls and looks like work.","tags":["Opportunity","Work"],"authorSlug":"thomas-edison","length":91,"dateAdded":"2023-04-14","dateModified":"2023-04-14","id":3},{"author":"Thomas Edison","content":"Hell, there are no rules here-- we're trying to accomplish something.","tags":[],"authorSlug":"thomas-edison","length":69,"dateAdded":"2023-04-14","dateModified":"2023-04-14","id":4},{"author":"Thomas Edison","content":"If we all did the things we are capable of doing, we would literally astound ourselves.","tags":["Inspirational","Motivational"],"authorSlug":"thomas-edison","length":87,"dateAdded":"2023-04-14","dateModified":"2023-04-14","id":5},{"author":"Thomas Edison","content":"Genius is one per cent inspiration, ninety-nine per cent perspiration.","tags":["Work","Genius","Inspirational","Motivational"],"authorSlug":"thomas-edison","length":70,"dateAdded":"2023-04-14","dateModified":"2023-04-14","id":6},{"author":"Charles Dickens","content":"Train up a fig tree in the way it should go, and when you are old sit under the shade of it.","tags":["Age","Wisdom"],"authorSlug":"charles-dickens","length":92,"dateAdded":"2023-04-14","dateModified":"2023-04-14","id":7},{"author":"Charles Dickens","content":"I do not know the American gentleman, god forgive me for putting two such words together.","tags":["Humorous"],"authorSlug":"charles-dickens","length":89,"dateAdded":"2023-04-14","dateModified":"2023-04-14","id":8},{"author":"Thomas Edison","content":"To invent, you need a good imagination and a pile of junk.","tags":["Imagination","Creativity","Science","Technology"],"authorSlug":"thomas-edison","length":58,"dateAdded":"2023-04-14","dateModified":"2023-04-14","id":9},{"author":"Thomas Edison","content":"If I find 10,000 ways something won't work, I haven't failed. I am not discouraged, because every wrong attempt discarded is another step forward.","tags":["Perseverance","Success","Inspirational","Motivational"],"authorSlug":"thomas-edison","length":146,"dateAdded":"2023-04-14","dateModified":"2023-04-14","id":10}]},"message":"Quotes fetched successfully","success":true}